Simulation-based inference - confidence intervals
…
Second, generate() a fixed number of bootstrap samples. Here well generate 10,000 bootstrap samples. Generally, the smaller your sample size, the more bootstrap samples youll want to generate.

manhattan %>% 
  specify(response = rent) %>% 
  generate(reps = 10000, type = "bootstrap")

#> Response: rent (numeric)
#> # A tibble: 200,000 x 2
#> # Groups:   replicate [10,000]
#>    replicate  rent
#>        <int> <dbl>
#>  1         1  2350
#>  2         1  2150
#>  3         1  3950
#>  4         1  3850
#>  5         1  1470
#>  6         1  1795
#>  7         1  2145
#>  8         1  2150
#>  9         1  3850
#> 10         1  3800
#> #  with 199,990 more rows

Finally, calculate() the relevant statistic for each bootstrap sample.

boot_means <- manhattan %>% 
  specify(response = rent) %>% 
  generate(reps = 10000, type = "bootstrap") %>% 
  calculate(stat = "mean")
boot_means

#> # A tibble: 10,000 x 2
#>    replicate  stat
#>  *     <int> <dbl>
#>  1         1 2869.
#>  2         2 2749.
#>  3         3 2466.
#>  4         4 2738.
#>  5         5 2725.
#>  6         6 2615.
#>  7         7 2761.
#>  8         8 2788.
#>  9         9 2256.
#> 10        10 2844.
#> #  with 9,990 more rows
…
